<?xml version="1.0" encoding="iso-8859-1"?>
<!-- Generator: Adobe Illustrator 16.0.0, SVG Export Plug-In . SVG Version: 6.00 Build 0)  -->
<!DOCTYPE svg PUBLIC "-//W3C//DTD SVG 1.1//EN" "http://www.w3.org/Graphics/SVG/1.1/DTD/svg11.dtd">
<svg xmlns="http://www.w3.org/2000/svg" xmlns:xlink="http://www.w3.org/1999/xlink" version="1.1" id="Capa_1" x="0px" y="0px" width="512px" height="512px" viewBox="0 0 81.535 81.535" style="enable-background:new 0 0 81.535 81.535;" xml:space="preserve">
<g>
	<g>
		<path d="M75.545,42.16V16.967h-15.03l-6.366-10.67l-11.746,7.007L26.344,4.207L0,50.708L26.496,65.72v4.692h8.282l0.762,0.434    l3.868,6.482L51,70.413h24.549V55.768l5.986-3.572L75.545,42.16z M63.122,21.337h8.048v13.489v4.881v3.653v9.923v0.568v0.524    h-0.881h-0.953H56.662l1.549-6.916l0.025-0.039l-0.014,0.01l0.084-0.397c0.477-1.562-0.362-2.347-0.362-2.347l-2.035-2.033    l-1.976-1.974l4.38-5.064l1.008,1.017l1.789,1.798c0,0,0.955,0.977,2.198,0.033c0.101-0.075,0.196-0.14,0.302-0.243l2.806-2.827    l1.756-1.773c0.22-0.263,0.345-0.602,0.345-0.972c0-0.693-0.468-1.257-1.1-1.445c-0.144-0.045-0.28-0.089-0.436-0.089    c-0.374,0-0.721,0.135-0.987,0.362l-1.205,1.203l-2.579,2.577l-1.355-1.353l-3.212-3.211c-0.342-0.341-0.821-0.549-1.346-0.549    h-7.158c-0.46,0-0.876,0.214-1.147,0.542l-4.943,5.697c-0.306,0.268-0.502,0.664-0.502,1.11c0,0.82,0.663,1.485,1.488,1.485    c0.462,0,0.872-0.21,1.146-0.54l4.59-5.305l2.642,0.014L42.307,44.865l-6.837-0.023c-0.159-0.004-0.319,0.014-0.483,0.051    c-1.025,0.232-1.659,1.236-1.429,2.265c0.203,0.901,1.012,1.508,1.896,1.494l7.944-0.014c1.686,0.058,2.317-0.726,2.317-0.726    l3.917-4.368l3.723,3.618l0.832,0.814l-0.483,2.148l-0.955,4.257h-3.486h-2.687H39h-8.139v-4.615V25.28v-3.943h6.608h10.237h8.878    h1.446H63.122z M26.494,47.141l-8.472-14.202l8.472-5.055V47.141z M52.634,12.295l2.787,4.672H48.86h-4.06l1.979-1.182    L52.634,12.295z M27.99,10.165l10.089,5.713l-1.815,1.084h-9.772v5.831l-8.542,5.096L27.99,10.165z M14.037,34.798l4.896,8.209    l-7.224-4.093L14.037,34.798z" fill="#dddddd"/>
		<path d="M57.269,26.751c-0.178,0.381-0.292,0.794-0.292,1.243c0,1.628,1.316,2.947,2.947,2.947c1.018,0,1.868-0.546,2.399-1.326    c0.114-0.176,0.247-0.334,0.329-0.535c0.135-0.339,0.219-0.7,0.219-1.086c0-1.502-1.136-2.691-2.587-2.878    c-0.123-0.016-0.234-0.072-0.36-0.072C58.742,25.046,57.743,25.752,57.269,26.751z" fill="#dddddd"/>
	</g>
</g>
<g>
</g>
<g>
</g>
<g>
</g>
<g>
</g>
<g>
</g>
<g>
</g>
<g>
</g>
<g>
</g>
<g>
</g>
<g>
</g>
<g>
</g>
<g>
</g>
<g>
</g>
<g>
</g>
<g>
</g>
</svg>
